module gitlab.com/davidthamwf/smtp-dove

go 1.17

require (
	github.com/emersion/go-smtp v0.15.0
	github.com/google/uuid v1.3.0
)

require (
	github.com/davecgh/go-spew v1.1.0 // indirect
	github.com/emersion/go-sasl v0.0.0-20200509203442-7bfe0ed36a21 // indirect
	github.com/pmezard/go-difflib v1.0.0 // indirect
	github.com/stretchr/objx v0.1.0 // indirect
	github.com/stretchr/testify v1.7.0 // indirect
	gopkg.in/yaml.v3 v3.0.0-20200313102051-9f266ea9e77c // indirect
)
